-6920143.969917550
-6920144.105550840
-6920144.170731150
-6920144.193861160
-6920144.198722740
-6920144.206972680
-6920144.207758400
-6920144.210019100
-6920144.210548810
-6920144.211056240
-6920144.211317530
-6920144.211483650
-6920144.211648890
-6920144.211929930
-6920144.212317800
-6920144.213150690
-6920144.213708290
-6920144.215865840
-6920144.218003020
-6920144.218964470
-6920144.219607350
-6920144.220146060
-6920144.220560590
-6920144.220845490
-6920144.221047330
-6920144.221180610
-6920144.221386720
-6920144.221737370
-6920144.221957210
-6920144.222238800
-6920144.222490390
-6920144.222716340
-6920144.222996150
-6920144.223387290
-6920144.223713550
-6920144.224104930
-6920144.224496930
-6920144.224901120
-6920144.225503130
-6920144.226296790
-6920144.227188650
-6920144.227907190
-6920144.228559080
-6920144.228989690
-6920144.229436570
-6920144.229822670
-6920144.230340040
-6920144.231175870
-6920144.231825030
-6920144.232560270
-6920144.233210500
-6920144.233504890
-6920144.233723730
-6920144.233847320
