-7214117.323210000
-7214117.526840100
-7214117.537018880
-7214117.572086270
-7214117.589959010
-7214117.608137100
-7214117.660267650
-7214117.808086810
-7214117.858479020
-7214118.091309970
-7214118.210772560
-7214117.853150300
-7214118.386789310
-7214118.394566240
-7214118.486696000
-7214118.500154980
-7214118.521768780
-7214118.529181340
-7214118.533615760
-7214118.537457680
-7214118.539282390
-7214118.540926180
-7214118.542572820
-7214118.544529420
-7214118.546905740
-7214118.549649540
-7214118.552622970
-7214118.554865500
-7214118.556845900
-7214118.558798380
-7214118.560993960
-7214118.562883910
-7214118.564737150
-7214118.566515960
-7214118.567763850
-7214118.568872830
-7214118.569509640
-7214118.570003240
-7214118.570493870
-7214118.571002180
-7214118.571576580
-7214118.572297720
-7214118.573161080
-7214118.573968700
-7214118.574814310
-7214118.575627410
-7214118.576193120
-7214118.576649520
-7214118.577054940
-7214118.577326270
-7214118.577529290
-7214118.577687420
