40
Lattice="7.70534262 -7.98115902 0.0 7.70534262 7.98115902 0.0 0.0 0.0 11.12101407" Properties=species:S:1:pos:R:3 pbc="T T T"
Pb       0.00000000       0.00000000       0.00000000
Pb       3.85267131      -3.99057951       0.00000000
Pb       3.85267131       3.99057951       0.00000000
Pb       7.70534262       0.00000000       0.00000000
Pb       0.00000000       0.00000000       5.56050703
Pb       3.85267131      -3.99057951       5.56050703
Pb       3.85267131       3.99057951       5.56050703
Pb       7.70534262       0.00000000       5.56050703
Cl       2.28521823      -1.64690299       0.42021953
Cl       1.56745308       2.34367652       0.42021953
Cl      -0.55151175      -0.11939782       2.78025352
Cl       5.42012439      -6.33425603      -0.42021953
Cl       6.13788954      -2.34367652      -0.42021953
Cl       4.40418306      -4.10997733       2.78025352
Cl       5.42012439       1.64690299      -0.42021953
Cl       6.13788954       5.63748250      -0.42021953
Cl       4.40418306       3.87118169       2.78025352
Cl       9.99056085      -1.64690299       0.42021953
Cl       9.27279570       2.34367652       0.42021953
Cl       7.15383087      -0.11939782       2.78025352
Cl       2.28521823      -1.64690299       5.14028751
Cl       1.56745308       2.34367652       5.14028751
Cl       0.55151175       0.11939782       8.34076055
Cl       5.42012439      -6.33425603       5.98072656
Cl       6.13788954      -2.34367652       5.98072656
Cl       3.30115956      -3.87118169       8.34076055
Cl       5.42012439       1.64690299       5.98072656
Cl       6.13788954       5.63748250       5.98072656
Cl       3.30115956       4.10997733       8.34076055
Cl       9.99056085      -1.64690299       5.14028751
Cl       9.27279570       2.34367652       5.14028751
Cl       8.25685437       0.11939782       8.34076055
Cs       3.72843799       0.44993249       2.78025352
Cs       7.82957594      -3.54064702       2.78025352
Cs       7.82957594       4.44051200       2.78025352
Cs      11.43378061       0.44993249       2.78025352
Cs       3.97690463      -0.44993249       8.34076055
Cs       7.58110930      -4.44051200       8.34076055
Cs       7.58110930       3.54064702       8.34076055
Cs      11.68224725      -0.44993249       8.34076055
