40
Lattice="7.90873358 -8.29487687 0.0 7.90873358 8.29487687 0.0 0.0 0.0 11.5315013" Properties=species:S:1:pos:R:3:forces:R:3 pbc="T T T"
Pb       0.00000000       0.00000000       0.00000000      -0.19230647       0.23258687      -0.03456595
Pb       3.95436679      -4.14743843       0.00000000       0.24406616      -0.25441264       0.01196483
Pb       3.95436679       4.14743843       0.00000000      -0.11668831      -0.03307865      -0.37566573
Pb       7.90873358       0.00000000       0.00000000       0.02548422      -0.04765480      -0.00834994
Pb       0.00000000       0.00000000       5.76575065       0.01749294      -0.04343120       0.02338515
Pb       3.95436679      -4.14743843       5.76575065       0.00592697       0.00512573      -0.04227697
Pb       3.95436679       4.14743843       5.76575065       0.20646592      -0.28166243       0.49686466
Pb       7.90873358       0.00000000       5.76575065      -0.26321795       0.26609405       0.10251721
Br       2.38248258      -1.68437031       0.42922208       0.06134849      -0.00623178       0.02877967
Br       1.57188421       2.46306813       0.42922208      -0.01861705       0.04685829       0.05700008
Br      -0.55975098      -0.09398452       2.88287533       0.13260866      -0.08075968      -0.00601798
Cl       5.52625100      -6.61050656      -0.42922208       0.04710761       0.04721222       0.04670439
Br       6.33684937      -2.46306813      -0.42922208       0.01178165      -0.02768944       0.00612431
Cl       4.51411777      -4.24142296       2.88287533      -0.07357749      -0.02866585       0.01012741
Br       5.52625100       1.68437031      -0.42922208       0.01227429       0.00930111       0.02798405
Br       6.33684937       5.83180874      -0.42922208       0.06940118      -0.05186492       0.02176777
Br       4.51411777       4.05345391       2.88287533       0.05642101       0.06916925       0.01662944
Br      10.29121616      -1.68437031       0.42922208       0.06241460       0.04665829       0.06600436
Br       9.48061779       2.46306813       0.42922208       0.03383293       0.00714293       0.01114970
Br       7.34898260      -0.09398452       2.88287533       0.09775220      -0.00031986       0.01710279
Br       2.38248258      -1.68437031       5.33652857       0.06878146       0.00044674      -0.02709410
Br       1.57188421       2.46306813       5.33652857       0.04985101      -0.04066648       0.06889596
Br       0.55975098       0.09398452       8.64862598       0.06141874      -0.01687270       0.01519931
Br       5.52625100      -6.61050656       6.19497273      -0.04449767      -0.00794039       0.05136763
Br       6.33684937      -2.46306813       6.19497273       0.04230277      -0.02753686       0.01582292
Cl       3.39461581      -4.05345391       8.64862598       0.17068679       0.07494590       0.01840869
Cl       5.52625100       1.68437031       6.19497273       0.06031544      -0.00032100      -0.06221674
Br       6.33684937       5.83180874       6.19497273       0.04262029      -0.05674971       0.04492952
Cl       3.39461581       4.24142296       8.64862598       0.03967908       0.06699706      -0.00496979
Br      10.29121616      -1.68437031       5.33652857       0.09378977       0.08001541       0.03705037
Br       9.48061779       2.46306813       5.33652857       0.02995390      -0.03329206       0.04834499
Br       8.46848456       0.09398452       8.64862598       0.06317750      -0.03468130      -0.00567194
Cs       3.99321220       0.56011081       2.93231156      -0.22485623      -0.07002164       0.02177520
Cs       8.30732505      -3.54284908       3.08820616      -0.25504254      -0.05709697      -0.29027370
Cs       8.20812834       4.59255530       2.92229726      -0.12608002       0.15826792      -0.03277316
Cs      11.92717400       0.56312003       2.94000204      -0.21301838       0.07173207      -0.09002993
Cs       4.28371944      -0.56095822       8.69150679      -0.12394118       0.00968502      -0.13750043
Cs       7.80753437      -4.63313218       8.66865423       0.07473084      -0.05141309       0.03016806
Cs       8.00622976       3.64770910       8.77121148      -0.14057696       0.04143957      -0.12512401
Cs      12.17682773      -0.58603114       8.78880982      -0.08926617       0.01868502      -0.05353809
40
Lattice="7.90873358 -8.29487687 0.0 7.90873358 8.29487687 0.0 0.0 0.0 11.5315013" Properties=species:S:1:pos:R:3:forces:R:3 pbc="T T T"
Pb      -0.03037824       0.03711031      -0.00557365      -0.02071961       0.01392563       0.01226958
Pb       3.99373777      -4.18819485       0.00210645       0.04308227      -0.04611114       0.01365253
Pb       3.93577019       4.14231956      -0.05974632       0.02922124      -0.00476435      -0.02220437
Pb       7.91303735      -0.00770518      -0.00137400       0.02760044       0.00235551       0.01871944
Pb       0.00280486      -0.00718589       5.76972285       0.00223814       0.00807737       0.00898481
Pb       3.95551040      -4.14660962       5.75911155       0.04399925      -0.00006930       0.00517826
Pb       3.98775736       4.10239532       5.84500744       0.03848139      -0.03970009       0.04658017
Pb       7.86689240       0.04222712       5.78229338      -0.01291042       0.02165571       0.00010208
Br       2.39229834      -1.68568505       0.43363901       0.00896250      -0.00909909      -0.01205440
Br       1.56859505       2.47105864       0.43899543      -0.04169261       0.03773284       0.02897322
Br      -0.53731589      -0.10769942       2.88201918       0.06001441      -0.03326383       0.00342409
Cl       5.53394230      -6.60308031      -0.42177730       0.03696572       0.01164973       0.01728489
Br       6.33905718      -2.46765893      -0.42823663       0.04165737      -0.02638257      -0.00302247
Cl       4.50173683      -4.24631574       2.88462305      -0.03924110      -0.03404723       0.00378525
Br       5.52854328       1.68573767      -0.42446282      -0.00003228       0.00124079      -0.00828787
Br       6.34855218       5.82312385      -0.42539698       0.03175087      -0.02541442       0.00335817
Br       4.52284694       4.06534829       2.88578082      -0.00976939       0.03226519       0.01322829
Br      10.30197158      -1.67660511       0.44043445       0.05380254       0.03800435       0.02987986
Br       9.48631065       2.46413564       0.43107103       0.02407479      -0.01131555      -0.00148273
Br       7.36557069      -0.09401293       2.88584847       0.04297245       0.01565127       0.01041435
Br       2.39397880      -1.68406777       5.33191357       0.03699290       0.02335715      -0.00644376
Br       1.58050319       2.45629273       5.34824235       0.03021324      -0.02443558       0.05568454
Br       0.57020826       0.09111296       8.65115854       0.05450424      -0.00619723       0.00555318
Br       5.51898946      -6.61208066       6.20365489      -0.00286054      -0.02971664       0.04237487
Br       6.34414354      -2.46753821       6.19760278       0.02787674      -0.02318825       0.01449293
Cl       3.42358233      -4.04073980       8.65170161       0.12626224       0.04642839       0.00922885
Cl       5.53576710       1.68395441       6.18498700       0.00860067       0.00064066       0.00856360
Br       6.34437998       5.82235037       6.20266777       0.05682689      -0.05694523       0.06602863
Cl       3.40051113       4.25296239       8.64807939       0.00722454       0.03996521       0.01210832
Br      10.30662352      -1.67138728       5.34340171       0.02551521       0.00552402       0.06359568
Br       9.48586793       2.45774084       5.34465523       0.00708931       0.00963424       0.02895037
Br       8.47928183       0.08809946       8.64795911       0.05301398      -0.01681283       0.01909483
Cs       3.95503496       0.54820881       2.93601260      -0.15693954      -0.02847742      -0.02091005
Cs       8.26398367      -3.55259433       3.03891024      -0.16401970      -0.03714290      -0.15400490
Cs       8.18670087       4.61944375       2.91674126      -0.10775540       0.10797344      -0.04666302
Cs      11.89103842       0.57530041       2.92468362      -0.15701937       0.02131872      -0.04095660
Cs       4.26264360      -0.55929083       8.66812531      -0.10965469      -0.02397683      -0.07516718
Cs       7.82024803      -4.64187730       8.67378776       0.03813673      -0.02719504      -0.00515085
Cs       7.98244030       3.65476892       8.74991880      -0.05307701       0.03742671      -0.07974573
Cs      12.16165437      -0.58283759       8.77972341      -0.08138842       0.02942859      -0.06541684
40
Lattice="7.90873358 -8.29487687 0.0 7.90873358 8.29487687 0.0 0.0 0.0 11.5315013" Properties=species:S:1:pos:R:3:forces:R:3 pbc="T T T"
Pb      -0.03448195       0.03631949       0.00306132       0.02763216       0.02196508      -0.04502399
Pb       4.01262310      -4.20654685       0.01066201       0.04442663       0.03298742      -0.02829475
Pb       3.95793488       4.14026143      -0.05837294      -0.03081281      -0.00192160      -0.00658227
Pb       7.92967825      -0.00492313       0.01102255      -0.00879023      -0.02100611      -0.06236763
Pb       0.00388412      -0.00248128       5.77557383       0.01400122      -0.04524098       0.05258076
Pb       3.98389674      -4.14728512       5.76389698      -0.02206713       0.00101185       0.01512301
Pb       4.00510978       4.08908101       5.85671457       0.01894704       0.02171074       0.02932163
Pb       7.86973354       0.04581065       5.78049610       0.03320426       0.00028109       0.06373879
Br       2.39619102      -1.69218417       0.42367711       0.00229733      -0.01612700      -0.01955165
Br       1.54147086       2.49586656       0.45560182       0.00259735       0.00633469      -0.00753715
Br      -0.50325158      -0.12645331       2.88542554      -0.05398110       0.04715074       0.01379141
Cl       5.55758509      -6.59706323      -0.41197365       0.00662299      -0.00868470       0.00331854
Br       6.36776222      -2.48472329      -0.43043509       0.02319722      -0.01619694       0.01938868
Cl       4.47824833      -4.26903145       2.88730593       0.00667611      -0.01808709       0.00626039
Br       5.52891319       1.68475276      -0.43225190       0.00110620      -0.03065909      -0.02370667
Br       6.36789215       5.80841877      -0.42474675       0.01364642      -0.00436942      -0.00759256
Br       4.51380650       4.08389134       2.89388398      -0.01721853      -0.00672722       0.00752967
Br      10.33707267      -1.65296163       0.45752969       0.02330821       0.00993236       0.00325123
Br       9.50175631       2.45649333       0.42964983       0.00350771       0.02793658       0.00874133
Br       7.38953641      -0.08271253       2.89179080      -0.04069131       0.02144035       0.02145094
Br       2.41656035      -1.66840235       5.32941467       0.02138478      -0.02200282       0.01954819
Br       1.59892788       2.44200296       5.38346402      -0.02399730       0.02228413      -0.01723634
Br       0.60524938       0.08765846       8.65504927       0.01555845      -0.00700356       0.00983993
Br       5.51830684      -6.63179862       6.23106790      -0.00974052       0.00371165       0.00246618
Br       6.36286690      -2.48151218       6.20724431       0.03979532      -0.00632342      -0.00907572
Cl       3.50285029      -4.01214203       8.65738457       0.03413143      -0.00717671      -0.00462226
Cl       5.54022107       1.68379584       6.19425881       0.01141207      -0.01093186       0.01634794
Br       6.38248489       5.78568669       6.24691232       0.03484162       0.00117200       0.01397894
Cl       3.40471799       4.27725693       8.65631430       0.01702933       0.02101854       0.01514158
Br      10.31994177      -1.67192142       5.38581002      -0.01326771      -0.00840964       0.01240391
Br       9.48951235       2.46688971       5.36260120      -0.01429195       0.04223038      -0.00858928
Br       8.51294524       0.07814060       8.66000406       0.01105973       0.01734295      -0.00968381
Cs       3.85659240       0.53214215       2.91956215      -0.02689675       0.02211456      -0.03535881
Cs       8.16220266      -3.57585965       2.94674777      -0.08534298      -0.02712598      -0.00534398
Cs       8.11719142       4.68698439       2.88530620      -0.02032026      -0.03254214      -0.00452415
Cs      11.79191203       0.58600844       2.90090013      -0.03825273      -0.00193815       0.01028858
Cs       4.19157691      -0.57706184       8.62275745      -0.01997265       0.00648616      -0.01700428
Cs       7.84298796      -4.65822695       8.66817508       0.02455461      -0.00427689       0.00204895
Cs       7.95365310       3.67913393       8.70039768       0.03703567      -0.02871375      -0.02609543
Cs      12.10875942      -0.56277978       8.73612872      -0.04232989      -0.00164623      -0.00836984
40
Lattice="7.90873358 -8.29487687 0.0 7.90873358 8.29487687 0.0 0.0 0.0 11.5315013" Properties=species:S:1:pos:R:3:forces:R:3 pbc="T T T"
Pb      -0.02107180       0.04619032      -0.01485493      -0.05826936      -0.05477217       0.10278980
Pb       4.04111211      -4.19546100      -0.00058546      -0.06361239      -0.05280900       0.03112019
Pb       3.95087066       4.13814745      -0.05962354       0.05804477       0.03409768       0.02704666
Pb       7.93140530      -0.01388321      -0.01465847       0.01756988       0.06540662       0.14569565
Pb       0.01226590      -0.02277961       5.80326375      -0.01091968       0.05732414      -0.10351539
Pb       3.98312707      -4.14704024       5.77277742       0.05570199      -0.02174665      -0.01443592
Pb       4.01994654       4.09629246       5.87457105      -0.03997493      -0.04310147      -0.04136475
Pb       7.88881246       0.04784345       5.81079472      -0.04491954      -0.02263534      -0.12685284
Br       2.39802048      -1.70273799       0.40937479       0.00818216      -0.00315118      -0.02002372
Br       1.53446981       2.50664999       0.45614257       0.00718655       0.00800592      -0.02002295
Br      -0.52416168      -0.10389558       2.89344843      -0.02158704       0.03268228       0.00267407
Cl       5.56782670      -6.59998609      -0.40726205       0.00846855      -0.00585377      -0.02062465
Br       6.39079987      -2.49896848      -0.42033846       0.05227960       0.00268544      -0.00452860
Cl       4.47515202      -4.28608521       2.89107329       0.01111579       0.00059545      -0.00780183
Br       5.52801689       1.66851788      -0.44836161      -0.01733387      -0.01166099      -0.02676493
Br       6.38058956       5.80178016      -0.42877530      -0.00616413       0.00022966      -0.01812586
Br       4.50072895       4.08513835       2.90057895      -0.01810538      -0.00792952       0.01594122
Br      10.35979979      -1.63946760       0.46413756      -0.00837911      -0.01483374      -0.02546572
Br       9.50837069       2.46943930       0.43360556      -0.00368208      -0.00990669      -0.02614126
Br       7.37371427      -0.06666460       2.90446806      -0.01276006       0.00886623      -0.03189297
Br       2.43448689      -1.67512807       5.33992037      -0.01490019       0.02334844       0.00916144
Br       1.59063913       2.45040505       5.38407352       0.00856297       0.02549715       0.00112284
Br       0.62524225       0.08277953       8.66122624       0.01979401       0.00400288       0.00594704
Br       5.51397584      -6.63632042       6.24008691       0.02769241      -0.02825716       0.00255870
Br       6.38981585      -2.49044965       6.20449597       0.01361731      -0.00043460      -0.00069287
Cl       3.54488047      -4.00817319       8.65667825       0.00202314      -0.01465642       0.00187583
Cl       5.54772589       1.67815651       6.20652753       0.00140113       0.01319288       0.03091862
Br       6.41261611       5.77387439       6.26825658      -0.00754695      -0.01289087       0.00202054
Cl       3.41551496       4.29637783       8.66683414      -0.00198369       0.00787333       0.00264999
Br      10.31654271      -1.67772614       5.40500064       0.01269879      -0.01757951       0.00890538
Br       9.48083959       2.49304259       5.36269842      -0.02000476       0.02484548       0.00326065
Br       8.53011676       0.08564875       8.65926164       0.01915717       0.01255255       0.03129606
Cs       3.81286912       0.54063214       2.89395820       0.00636631       0.02148229      -0.01284727
Cs       8.08358339      -3.59817994       2.91784197      -0.06042918      -0.00063019       0.04283509
Cs       8.08536688       4.68725270       2.87350952      -0.00904015      -0.01847018      -0.01390652
Cs      11.74125704       0.58769256       2.90034636       0.00028468       0.00749733       0.02365068
Cs       4.15954744      -0.57862127       8.60011742       0.02848330       0.00873648      -0.00932979
Cs       7.86366780      -4.66529585       8.66756323       0.00543599       0.00054440      -0.01946193
Cs       7.96744199       3.66939743       8.67118037       0.04054288      -0.01806363       0.03028195
Cs      12.06889678      -0.55787008       8.71865872       0.01500314      -0.00008357       0.02204737
40
Lattice="7.90873358 -8.29487687 0.0 7.90873358 8.29487687 0.0 0.0 0.0 11.5315013" Properties=species:S:1:pos:R:3:forces:R:3 pbc="T T T"
Pb      -0.03465116       0.03957820       0.00508038       0.02056706      -0.01335824      -0.01721167
Pb       4.04310522      -4.20853746       0.00117259       0.01169622       0.03506928      -0.00597035
Pb       3.96074354       4.14714016      -0.05951657       0.02385212      -0.01270679       0.03559722
Pb       7.93693963       0.00067572       0.01379284      -0.01057217      -0.00583920      -0.02608850
Pb       0.01495484      -0.01886640       5.78807347       0.00563495       0.00972848       0.03051507
Pb       3.99819127      -4.15398402       5.77231304       0.01819803      -0.00154536       0.00123492
Pb       4.01932377       4.08234345       5.88264694      -0.00343260       0.02623459      -0.03869595
Pb       7.88112201       0.04715136       5.79209208       0.02992927      -0.00638951       0.02207998
Br       2.40299407      -1.71006383       0.39415268      -0.00291275      -0.00617785       0.00017417
Br       1.53542962       2.51415027       0.44785265      -0.00570611      -0.01029118      -0.01009425
Br      -0.54777491      -0.07689348       2.89936391      -0.02166898       0.00405996      -0.00492632
Cl       5.57574679      -6.60355223      -0.41226442      -0.01003821      -0.00801693      -0.01362063
Br       6.42054446      -2.50661121      -0.41437692       0.00024745      -0.01109404       0.01050676
Cl       4.47858213      -4.29499629       2.89076696       0.00567356      -0.00137265      -0.00329592
Br       5.52129255       1.65383205      -0.46732973      -0.01248732       0.01290695      -0.00326871
Br       6.38658674       5.79777413      -0.43832049       0.00565571      -0.00189967      -0.01164595
Br       4.48795083       4.08248940       2.90967804      -0.00005829      -0.00525132       0.00457344
Br      10.36861254      -1.63777367       0.45837058      -0.01408590      -0.00136026      -0.00903417
Br       9.50994172       2.47610031       0.42733555       0.00050256       0.00597655      -0.00539529
Br       7.35671993      -0.05449037       2.90221884      -0.02319120       0.00584588       0.00420391
Br       2.44050191      -1.67397592       5.35011249       0.00512034       0.00991181      -0.01436204
Br       1.58624111       2.46560274       5.38208529      -0.01020686       0.00107962      -0.00580130
Br       0.64188055       0.08091710       8.66739910      -0.01988686       0.00975854      -0.00437987
Br       5.51940869      -6.64712217       6.24530015       0.00356355      -0.00540869      -0.00543846
Br       6.41133956      -2.49579060       6.20193282      -0.01390643      -0.00793071      -0.00879828
Cl       3.56822460      -4.01268643       8.65643363       0.00093892      -0.02057621      -0.00205759
Cl       5.55421902       1.67898663       6.22391662       0.00198443      -0.00181884       0.01641782
Br       6.42589664       5.76514288       6.27831943      -0.02011469       0.00238172      -0.01853820
Cl       3.42233766       4.31058503       8.67364533      -0.00777868      -0.00534656       0.00182478
Br      10.31903439      -1.68564949       5.41708240      -0.00838554       0.00196127      -0.00463527
Br       9.46822581       2.51738158       5.36342164      -0.00685221      -0.00177555      -0.00022010
Br       8.54457611       0.09529114       8.66753291      -0.02369565       0.00339538      -0.00576946
Cs       3.79282751       0.55442757       2.87496834      -0.00352465       0.00852286      -0.01192860
Cs       8.01507566      -3.61154940       2.91899090      -0.01443874      -0.00631417       0.02324405
Cs       8.06623490       4.67652771       2.86336267      -0.00857156       0.01450125      -0.00048052
Cs      11.71477724       0.59221134       2.90954168       0.00401082      -0.00775765       0.03037583
Cs       4.15489648      -0.57402482       8.58372383       0.03784482      -0.00740197       0.00901022
Cs       7.87833849      -4.66905379       8.66110878       0.00515161      -0.00167272      -0.00114097
Cs       7.99163313       3.65442972       8.66652170       0.02713722       0.00287962       0.02739042
Cs      12.05279744      -0.55659228       8.71951023       0.03380677      -0.00290769       0.01564978
40
Lattice="7.90873358 -8.29487687 0.0 7.90873358 8.29487687 0.0 0.0 0.0 11.5315013" Properties=species:S:1:pos:R:3:forces:R:3 pbc="T T T"
Pb      -0.03474985       0.03532873       0.00427408       0.01505155       0.01574948      -0.00054258
Pb       4.04898921      -4.20313438       0.00036203      -0.00505289      -0.00134420      -0.00770708
Pb       3.97051805       4.14449479      -0.05147921      -0.03140751       0.00552129      -0.00361877
Pb       7.93299928       0.00248122       0.01299999       0.01300105      -0.00259241      -0.00253672
Pb       0.01723878      -0.01303664       5.79306989       0.01327759      -0.02525923      -0.00460115
Pb       4.00813599      -4.15660968       5.77043373      -0.03218473       0.01057763      -0.00062447
Pb       4.01854894       4.08363286       5.87573897      -0.00024790       0.02053635       0.01366327
Pb       7.88394273       0.04845510       5.79445876       0.01915349       0.00929475       0.00141585
Br       2.40371968      -1.71332668       0.39308395      -0.00458698       0.00041703      -0.00153284
Br       1.53480372       2.51075081       0.44166213       0.00213136       0.00076406      -0.00167194
Br      -0.55927246      -0.07194882       2.89808494      -0.01030385       0.00229000       0.00222817
Cl       5.57225889      -6.60711544      -0.41971076       0.00262414      -0.00671325      -0.00622792
Br       6.42579886      -2.51163824      -0.40909834       0.00605645      -0.00234759       0.00380098
Cl       4.48163632      -4.29582810       2.88882609       0.00503870      -0.00339176       0.00356844
Br       5.51496873       1.65720282      -0.47101230       0.00340081      -0.00411858       0.00023214
Br       6.39016284       5.79593470      -0.44526484       0.00371628      -0.00812750      -0.00486814
Br       4.48797864       4.08010037       2.91328680       0.00541722      -0.00117513      -0.00770500
Br      10.36223257      -1.63998560       0.45269018      -0.01036876       0.00453508       0.00061326
Br       9.51038432       2.47937961       0.42281260      -0.00161842      -0.00051979       0.00059071
Br       7.34511716      -0.05081807       2.90222362      -0.01523662       0.00201976       0.00296021
Br       2.44327493      -1.66903716       5.34421123       0.01404865      -0.00869974      -0.00598295
Br       1.58236985       2.46904872       5.37920317      -0.01408512      -0.00316117      -0.00613503
Br       0.63493801       0.08546240       8.66697387       0.00036673      -0.00057075      -0.00196852
Br       5.52185721      -6.65139852       6.24330202      -0.01078669       0.00657583      -0.00219842
Br       6.40855419      -2.49881231       6.19749730       0.00217711      -0.00157925      -0.00081351
Cl       3.57093676      -4.02330307       8.65556338       0.01071923      -0.00687756      -0.00472797
Cl       5.55686402       1.67933459       6.23291179       0.00042519       0.00233655       0.00891751
Br       6.41688739       5.76625502       6.26920999       0.00541502       0.00997235      -0.00579467
Cl       3.42007056       4.31006006       8.67476273       0.00240141      -0.00407744       0.00782888
Br      10.31798852      -1.68450421       5.41510873      -0.00848212      -0.00375326      -0.00150260
Br       9.46415186       2.51939035       5.36396919       0.00174458       0.00077900       0.00028808
Br       8.53570623       0.09807022       8.66709024      -0.00903073      -0.00607804      -0.00109589
Cs       3.78933829       0.55990634       2.86851127      -0.00855704       0.00048712      -0.00722224
Cs       7.99778145      -3.61582917       2.93016153      -0.00197657      -0.00447996       0.00398040
Cs       8.06049621       4.68204953       2.86225913       0.00151803       0.01080557       0.00451637
Cs      11.71434609       0.59070392       2.92511092      -0.00659487      -0.00923030       0.00915770
Cs       4.17495198      -0.57545782       8.58493838       0.01220565      -0.01138819       0.00197206
Cs       7.88298580      -4.67058147       8.65988362       0.00708001       0.00442782       0.00357457
Cs       8.00675853       3.65332834       8.68054833       0.01379809       0.01468840       0.00111804
Cs      12.06915218      -0.55848049       8.72935323       0.00975243      -0.00629300       0.00865176
40
Lattice="7.90873358 -8.29487687 0.0 7.90873358 8.29487687 0.0 0.0 0.0 11.5315013" Properties=species:S:1:pos:R:3:forces:R:3 pbc="T T T"
Pb      -0.02993286       0.03866518       0.00747770      -0.01435400      -0.00507803      -0.02272849
Pb       4.04856592      -4.20353387      -0.00249643       0.02236360      -0.00739012      -0.00064644
Pb       3.96306797       4.14719707      -0.04810455       0.01475283      -0.00557798      -0.01511196
Pb       7.93794190       0.00486132       0.01708017      -0.02993089       0.00029471      -0.01316044
Pb       0.02479670      -0.02007358       5.78996291      -0.01603908       0.02210638       0.01131859
Pb       4.00083701      -4.15381111       5.76856907       0.02873336      -0.01397406       0.00146577
Pb       4.01703387       4.09193883       5.87795721      -0.00241459      -0.02981697       0.01265120
Pb       7.89277118       0.05328509       5.79191861      -0.03825162      -0.00415336       0.01642630
Br       2.40234467      -1.71551403       0.39034823       0.00108674      -0.00416586      -0.00056974
Br       1.53498879       2.51045031       0.43713170      -0.00597055       0.00577740       0.00974400
Br      -0.57180624      -0.06659903       2.89855218      -0.00179129       0.00000507      -0.00206665
Cl       5.57266519      -6.61255253      -0.42774084       0.00227196       0.00479775       0.00331841
Br       6.43489916      -2.51623278      -0.40408378      -0.00800676      -0.00582016       0.00536250
Cl       4.48592288      -4.29888016       2.88919194      -0.00680207      -0.00690346      -0.00523306
Br       5.51243395       1.65656757      -0.47423124      -0.00076281       0.00862626       0.00851444
Br       6.39446317       5.79035371      -0.45227950      -0.00164755       0.00468385       0.00886209
Br       4.48968769       4.07829502       2.91262953       0.00270609       0.00347490       0.00609772
Br      10.35427839      -1.63870581       0.44959889       0.01273618      -0.00118287       0.01262771
Br       9.50998045       2.48074033       0.41976102       0.00488796       0.00963750       0.01106066
Br       7.33007607      -0.04687534       2.90277462      -0.00474881      -0.00202209       0.00510021
Br       2.45228861      -1.66909677       5.33800198      -0.00348217       0.00951623      -0.00804067
Br       1.57375555       2.47055957       5.37516578       0.01185793       0.00674202      -0.00191397
Br       0.63332134       0.08751743       8.66602551       0.00960081      -0.00805081       0.00133102
Br       5.51906450      -6.65203102       6.24154594       0.00746319      -0.00688864      -0.00759564
Br       6.40950901      -2.50165942       6.19459716       0.00353667       0.00926446      -0.00225108
Cl       3.58077284      -4.03274100       8.65291822       0.00484162       0.00213800       0.00554721
Cl       5.55896881       1.68149742       6.24425558       0.00235605       0.01316666      -0.00156926
Br       6.41567977       5.77024539       6.26258476       0.00470670      -0.00810614       0.00269358
Cl       3.42026615       4.30874331       8.67968866       0.00219604       0.00183948      -0.00734599
Br      10.31363965      -1.68665167       5.41462899       0.00016459      -0.00575226      -0.00131567
Br       9.46166057       2.52264723       5.36474270      -0.00408366       0.00697964      -0.00744506
Br       8.52774909       0.09659125       8.66780881       0.00410163      -0.00596839      -0.00231839
Cs       3.78014634       0.56383454       2.85974140      -0.00128726       0.00313831      -0.00377155
Cs       7.98122077      -3.62149160       2.93771211       0.00063255       0.00009372      -0.00301368
Cs       8.05597055       4.69158420       2.86277186       0.00333162       0.00009674      -0.00233712
Cs      11.70746576       0.58538622       2.93899929      -0.00355160      -0.00139070      -0.00127923
Cs       4.19171701      -0.58255294       8.58486524       0.00532311      -0.00500394       0.00176554
Cs       7.89054026      -4.66934718       8.66028206      -0.00360270       0.00456911      -0.00417323
Cs       8.02389309       3.66048918       8.68839188      -0.00082442       0.00843559      -0.00890403
Cs      12.08217693      -0.56257569       8.73926696      -0.00209943       0.00186207      -0.00109559
40
Lattice="7.90873358 -8.29487687 0.0 7.90873358 8.29487687 0.0 0.0 0.0 11.5315013" Properties=species:S:1:pos:R:3:forces:R:3 pbc="T T T"
Pb      -0.03133301       0.03776963       0.00277168      -0.00274451      -0.00173310       0.00249783
Pb       4.05330639      -4.20574195      -0.00362061       0.00060377      -0.00801568       0.00910611
Pb       3.96425686       4.14732270      -0.05035083       0.00019115       0.00319250       0.00631128
Pb       7.93214491       0.00596438       0.01553732       0.00084002       0.00258897       0.00498195
Pb       0.02269719      -0.01697032       5.79129978       0.00027283      -0.00414624      -0.00609393
Pb       4.00591525      -4.15654369       5.76916068      -0.00387300      -0.00118472      -0.01133451
Pb       4.01545759       4.08749047       5.88125196       0.00865528      -0.00433702      -0.00374577
Pb       7.88616928       0.05234959       5.79476424      -0.00716142       0.01088992      -0.00102046
Br       2.40185991      -1.71763102       0.38828868       0.00260151      -0.00388997      -0.00292345
Br       1.53272089       2.51321776       0.43946209      -0.00465096       0.00132847       0.00325539
Br      -0.57596225      -0.06420277       2.89846844       0.00255679       0.00057990      -0.00480183
Cl       5.57473151      -6.61277783      -0.42839606       0.00050498       0.00343993      -0.00255224
Br       6.43647779      -2.51937246      -0.40128257       0.00068929       0.00268526       0.00151679
Cl       4.48474191      -4.30290371       2.88816710      -0.00327803      -0.00514641       0.00080164
Br       5.51193610       1.65776025      -0.47316512      -0.00062049       0.00125817       0.00268685
Br       6.39503375       5.78994405      -0.45113816      -0.00112067       0.00385522       0.00417415
Br       4.49001280       4.07905504       2.91393331       0.00124482       0.00154439       0.00166376
Br      10.35708772      -1.63750946       0.45338876      -0.00082165       0.00194012       0.00415715
Br       9.51137245       2.48361630       0.42287096      -0.00386231      -0.00548155       0.00362639
Br       7.32434221      -0.04597055       2.90461896      -0.00238916      -0.00387271      -0.00148771
Br       2.45428582      -1.66706172       5.33495599      -0.00078728       0.00145200      -0.00183431
Br       1.57450738       2.47284940       5.37364100       0.00359552       0.00089874       0.00012579
Br       0.63831514       0.08469006       8.66614226       0.00859315      -0.00261653      -0.00229219
Br       5.52000734      -6.65435542       6.23937526      -0.00036540      -0.00224091      -0.00104528
Br       6.41229862      -2.50001162       6.19369281      -0.00272771      -0.00078383       0.00134983
Cl       3.58702240      -4.03354977       8.65368396       0.00504059      -0.00005930      -0.00061091
Cl       5.56005136       1.68622036       6.24758990       0.00340522       0.00047448       0.00397934
Br       6.41949154       5.76799651       6.26378289      -0.00165996      -0.00185041       0.00024736
Cl       3.42160237       4.30970458       8.67962314      -0.00208535       0.00067115      -0.00342414
Br      10.31157739      -1.69026594       5.41568463      -0.00843443       0.00154952       0.00208313
Br       9.45940113       2.52690411       5.36260349       0.00156821      -0.00005279      -0.00038567
Br       8.52881927       0.09407867       8.66794643       0.00097824      -0.00231388       0.00306643
Cs       3.77555560       0.56606422       2.85508224      -0.00265662       0.00262158      -0.00319315
Cs       7.97527773      -3.62347827       2.93727937       0.00579963       0.00349089      -0.00327519
Cs       8.05498744       4.69384608       2.86148877       0.00376679       0.00192368       0.00033582
Cs      11.70200134       0.58317405       2.94119162      -0.00323583      -0.00168579      -0.00038163
Cs       4.19479535      -0.58674821       8.58452949       0.00304754      -0.00189752       0.00249213
Cs       7.89179717      -4.66729703       8.65869894      -0.00092742       0.00100763      -0.00131842
Cs       8.02834244       3.66556016       8.68506380       0.00195177       0.00386604      -0.00491287
Cs      12.08171640      -0.56266199       8.73992574      -0.00250489       0.00004981      -0.00182548
40
Lattice="7.90873358 -8.29487687 0.0 7.90873358 8.29487687 0.0 0.0 0.0 11.5315013" Properties=species:S:1:pos:R:3:forces:R:3 pbc="T T T"
Pb      -0.03190142       0.03671377       0.00095105       0.00620473       0.00326022       0.00238446
Pb       4.05567308      -4.20929458      -0.00017397      -0.00631994      -0.00131639      -0.00575661
Pb       3.96441812       4.14862268      -0.04745141      -0.01003230       0.00253341      -0.00564103
Pb       7.93007942       0.00702056       0.01592827       0.00480707       0.00008412       0.00963440
Pb       0.02236329      -0.01828943       5.78994390       0.00582643       0.00450550      -0.00501759
Pb       4.00552534      -4.15793058       5.76420540       0.00397016       0.00592677       0.00568700
Pb       4.01901928       4.08515858       5.87992997      -0.01278503       0.00969816       0.00561311
Pb       7.88148655       0.05712511       5.79661388       0.00569775      -0.01005748      -0.00842811
Br       2.40280819      -1.72060349       0.38591080      -0.00181343       0.00068059      -0.00101133
Br       1.52935561       2.51474345       0.44185420       0.00319714       0.00302442      -0.00034522
Br      -0.57685590      -0.06281729       2.89599928       0.00243173      -0.00016007      -0.00041586
Cl       5.57569955      -6.61149255      -0.43032195       0.00368621      -0.00360914      -0.00331777
Br       6.43708889      -2.51943919      -0.39905680      -0.00244074      -0.00150808       0.00134695
Cl       4.48287094      -4.30733249       2.88815198       0.00049923      -0.00310395       0.00075270
Br       5.51126756       1.65905473      -0.47134103      -0.00193016       0.00160719       0.00139365
Br       6.39466539       5.79168737      -0.44868312      -0.00374462      -0.00301120       0.00063971
Br       4.49095834       4.07998298       2.91516460       0.00384691       0.00162698      -0.00446027
Br      10.35736720      -1.63593355       0.45694906      -0.00258671      -0.00023628       0.00060964
Br       9.50998652       2.48221409       0.42607681       0.00080805      -0.00087193       0.00119941
Br       7.32016655      -0.04761457       2.90501568      -0.00212678      -0.00169554       0.00192406
Br       2.45501558      -1.66569536       5.33254232       0.00157164      -0.00256371      -0.00211866
Br       1.57618298       2.47401434       5.37289329      -0.00135130      -0.00758117       0.00028523
Br       0.64426413       0.08240390       8.66485496       0.00399507      -0.00047893      -0.00521594
Br       5.51996562      -6.65621132       6.23780031      -0.00236748       0.00038646      -0.00114799
Br       6.41163684      -2.49982679       6.19380365      -0.00412032       0.00198375      -0.00141884
Cl       3.59225469      -4.03441672       8.65349540       0.00293296      -0.00230526      -0.00124017
Cl       5.56202191       1.68816323       6.25145568      -0.00269482       0.00244173       0.00612260
Br       6.41991415       5.76659366       6.26395976       0.00314738       0.00390738      -0.00098609
Cl       3.42095478       4.31023584       8.67815463       0.00199893       0.00019128       0.00514426
Br      10.30588739      -1.69102817       5.41715672      -0.00241178      -0.00269195       0.00251656
Br       9.45924584       2.52843134       5.36145720      -0.00300303      -0.00233772      -0.00026194
Br       8.52902301       0.09199031       8.66924287      -0.00112964       0.00229656       0.00058702
Cs       3.77236907       0.56854885       2.85123131      -0.00386091      -0.00010532      -0.00370785
Cs       7.97628952      -3.62247943       2.93583802       0.00566386       0.00504567       0.00158539
Cs       8.05664255       4.69590408       2.86134394       0.00356186       0.00251920      -0.00100264
Cs      11.69834423       0.58108824       2.94247966      -0.00179585      -0.00437151       0.00273143
Cs       4.19834025      -0.58954806       8.58612282       0.00193234      -0.00336078       0.00317467
Cs       7.89190214      -4.66600100       8.65751157      -0.00036445      -0.00063815      -0.00151774
Cs       8.03177268       3.66958226       8.68158136       0.00502621       0.00122695       0.00237725
Cs      12.08075263      -0.56280020       8.73942026      -0.00392634      -0.00094177      -0.00269787
40
Lattice="7.90873358 -8.29487687 0.0 7.90873358 8.29487687 0.0 0.0 0.0 11.5315013" Properties=species:S:1:pos:R:3:forces:R:3 pbc="T T T"
Pb      -0.03008591       0.03721513      -0.00106184       0.00248593      -0.00240350      -0.00044266
Pb       4.05650256      -4.21257196       0.00000527      -0.00581995      -0.00025264      -0.00555795
Pb       3.96104673       4.15021951      -0.04768294       0.00164288       0.00077675       0.00080899
Pb       7.92884020       0.00770095       0.01894783       0.00102332       0.00250200       0.00061968
Pb       0.02418805      -0.01682314       5.78784579       0.00093972      -0.00513228      -0.00356779
Pb       4.00777938      -4.15728894       5.76232887      -0.00909345      -0.00207318       0.00363133
Pb       4.01679272       4.08645918       5.88157079       0.00190453       0.00691895      -0.00095983
Pb       7.87882622       0.05736093       5.79616528       0.00625635       0.00366997      -0.00032707
Br       2.40288868      -1.72306424       0.38375797      -0.00175850       0.00130001      -0.00133019
Br       1.52778838       2.51696955       0.44357989       0.00001958       0.00040006      -0.00187769
Br      -0.57734219      -0.06172515       2.89352679       0.00297181       0.00139082      -0.00190451
Cl       5.57767204      -6.61210271      -0.43382987       0.00375966      -0.00422906      -0.00412953
Br       6.43621217      -2.52059664      -0.39599617       0.00043321      -0.00052741       0.00037217
Cl       4.48158197      -4.31242085       2.88807561       0.00422225      -0.00090369      -0.00033384
Br       5.50956379       1.66154693      -0.46886570       0.00117211      -0.00249781       0.00116730
Br       6.39303547       5.79189382      -0.44655738      -0.00068855       0.00133773      -0.00176702
Br       4.49379244       4.08145091       2.91470563      -0.00014214       0.00115827       0.00002943
Br      10.35608102      -1.63499285       0.46019537      -0.00593570       0.00211145      -0.00069019
Br       9.50935708       2.48133252       0.42935949       0.00115264      -0.00218167      -0.00065035
Br       7.31467472      -0.04963491       2.90639655      -0.00204812      -0.00070002       0.00010160
Br       2.45642924      -1.66514153       5.32861472       0.00201573      -0.00339871      -0.00067049
Br       1.57708403       2.47215955       5.37188757       0.00031772       0.00006543      -0.00137840
Br       0.65021219       0.08045687       8.66158611       0.00200069       0.00211714       0.00018902
Br       5.51915237      -6.65786961       6.23538784      -0.00103565       0.00111813       0.00017582
Br       6.40901543      -2.49856495       6.19283374       0.00121110       0.00008204      -0.00019735
Cl       3.59773133      -4.03702216       8.65286203       0.00198022      -0.00238862       0.00023014
Cl       5.56284221       1.69134839       6.25763309      -0.00453842       0.00330196       0.00465312
Br       6.42069381       5.76730650       6.26255192      -0.00181466       0.00260396      -0.00055442
Cl       3.42111236       4.31053967       8.67886081      -0.00170647       0.00144803       0.00165182
Br      10.30019271      -1.69262902       5.41880088       0.00134889      -0.00451248       0.00199158
Br       9.45770903       2.52875895       5.36022268       0.00027427      -0.00342105       0.00159195
Br       8.52758267       0.09120206       8.67020284      -0.00290202       0.00316292       0.00281033
Cs       3.76804933       0.57083201       2.84606881      -0.00234671       0.00037576      -0.00218807
Cs       7.97922775      -3.61961701       2.93633029       0.00256152       0.00222108       0.00209842
Cs       8.05965619       4.69930520       2.86089068       0.00135409       0.00105692      -0.00001240
Cs      11.69491552       0.57711752       2.94599998       0.00205410      -0.00216703       0.00339170
Cs       4.20428572      -0.59371566       8.58926442       0.00028472       0.00035678       0.00240053
Cs       7.89198080      -4.66511595       8.65583235      -0.00190483      -0.00254263       0.00003901
Cs       8.03782428       3.67385219       8.68090870       0.00177238      -0.00075581       0.00317822
Cs      12.07993001      -0.56360643       8.73880564      -0.00342427       0.00061143      -0.00259240
40
Lattice="7.90873358 -8.29487687 0.0 7.90873358 8.29487687 0.0 0.0 0.0 11.5315013" Properties=species:S:1:pos:R:3:forces:R:3 pbc="T T T"
Pb      -0.02849000       0.03594582      -0.00410196       0.00305982       0.00487344      -0.00286555
Pb       4.05587141      -4.21624981      -0.00245518       0.00727424       0.00131626       0.00535855
Pb       3.96053741       4.15169320      -0.04791209      -0.00556288       0.00168471       0.00691059
Pb       7.92639974       0.00990580       0.02122123       0.00054990      -0.00724718       0.00155098
Pb       0.02540858      -0.01733468       5.78470836       0.00479207      -0.00102325       0.00073175
Pb       4.00626675      -4.15906978       5.76213802       0.00367970       0.00324850      -0.00642898
Pb       4.01664934       4.08897354       5.88315026       0.00138650      -0.00355677      -0.00500924
Pb       7.87733132       0.06040957       5.79679341      -0.00537360      -0.00280174       0.00302346
Br       2.40227311      -1.72488990       0.38108528       0.00326732      -0.00479897      -0.00217915
Br       1.52600837       2.51913472       0.44411488       0.00160785      -0.00099991      -0.00382309
Br      -0.57667531      -0.05969157       2.89005405       0.00285365       0.00088167       0.00234596
Cl       5.58129626      -6.61468652      -0.43942361      -0.00293350       0.00165867      -0.00471624
Br       6.43583590      -2.52236567      -0.39267689       0.00015793       0.00137428      -0.00112675
Cl       4.48281878      -4.31751225       2.88739120       0.00180812      -0.00064692       0.00123926
Br       5.50847126       1.66273725      -0.46580272      -0.00299769       0.00099917      -0.00047429
Br       6.39160073       5.79309693      -0.44583707       0.00148977       0.00044911      -0.00460671
Br       4.49611621       4.08345044       2.91504261      -0.00094460       0.00103990      -0.00000178
Br      10.35191369      -1.63328677       0.46291997       0.00026355      -0.00308995      -0.00203972
Br       9.50970888       2.47989595       0.43205845      -0.00094727      -0.00158231      -0.00089286
Br       7.30801731      -0.05162006       2.90774964      -0.00043566       0.00255674       0.00354513
Br       2.45875027      -1.66575257       5.32414648      -0.00235667      -0.00178500       0.00129286
Br       1.57856601       2.47159276       5.36991737      -0.00053885      -0.00062707      -0.00063333
Br       0.65657270       0.07989146       8.65906566       0.00033294       0.00144613      -0.00319446
Br       5.51854083      -6.65925253       6.23296980       0.00135493      -0.00136693       0.00118020
Br       6.40774036      -2.49730533       6.19158192      -0.00216553      -0.00258974       0.00045735
Cl       3.60389890      -4.04097640       8.65269161      -0.00239479      -0.00198237      -0.00058108
Cl       5.56146047       1.69658291       6.26577483       0.00558993      -0.00472582       0.00286847
Br       6.41995075       5.76892137       6.26079088       0.00208505       0.00243526       0.00254548
Cl       3.42009717       4.31177694       8.67977334      -0.00239203       0.00246270       0.00143834
Br      10.29608984      -1.69659752       5.42107143      -0.00383193       0.00643660       0.00197752
Br       9.45632157       2.52762057       5.35974589       0.00222643       0.00169983       0.00115064
Br       8.52444985       0.09203150       8.67251452      -0.00235756       0.00432261      -0.00212288
Cs       3.76279166       0.57341469       2.84005922      -0.00137602       0.00126411       0.00050055
Cs       7.98194604      -3.61639043       2.93826847      -0.00036637      -0.00090462       0.00071277
Cs       8.06275978       4.70313421       2.86042930      -0.00059181      -0.00087717      -0.00004530
Cs      11.69310721       0.57253227       2.95164712       0.00519869      -0.00084691       0.00043917
Cs       4.21082844      -0.59722678       8.59328594      -0.00135647       0.00261779      -0.00042808
Cs       7.89097779      -4.66568584       8.65427331      -0.00237601      -0.00245181       0.00104931
Cs       8.04444253       3.67758172       8.68234770      -0.00351753      -0.00031166       0.00213214
Cs      12.07817056      -0.56390459       8.73743972      -0.00416162       0.00144864      -0.00128098
40
Lattice="7.90873358 -8.29487687 0.0 7.90873358 8.29487687 0.0 0.0 0.0 11.5315013" Properties=species:S:1:pos:R:3:forces:R:3 pbc="T T T"
Pb      -0.02687331       0.03684992      -0.00634383      -0.00115778      -0.00259316      -0.00346102
Pb       4.05774861      -4.21777039      -0.00218951       0.00094312      -0.00135421       0.00220652
Pb       3.95877262       4.15304327      -0.04608714       0.00379139       0.00033383      -0.00348757
Pb       7.92539639       0.00866126       0.02318166      -0.00221028       0.00244476      -0.00187731
Pb       0.02750956      -0.01778992       5.78313924      -0.00177100       0.00024915       0.00397586
Pb       4.00675901      -4.15908041       5.76044300       0.00240852      -0.00380862      -0.00199593
Pb       4.01694856       4.08887457       5.88254169       0.00168070       0.00062850       0.00353415
Pb       7.87475650       0.06061009       5.79782481      -0.00008239       0.00104172       0.00405958
Br       2.40300301      -1.72722959       0.37894572       0.00179978      -0.00212710      -0.00126776
Br       1.52597185       2.51987903       0.44271450      -0.00063828      -0.00015660      -0.00163300
Br      -0.57480980      -0.05834862       2.88930592       0.00341670       0.00087334      -0.00321200
Cl       5.58223322      -6.61558764      -0.44391531      -0.00022625       0.00080434      -0.00316312
Br       6.43582042      -2.52275197      -0.39184549       0.00088650      -0.00034368      -0.00177077
Cl       4.48448680      -4.31996116       2.88742954       0.00245633      -0.00020003       0.00038038
Br       5.50705094       1.66332941      -0.46458372      -0.00158702       0.00064131       0.00120545
Br       6.39142205       5.79385230      -0.44750659       0.00015403       0.00306504      -0.00215165
Br       4.49669369       4.08487328       2.91523000      -0.00110793       0.00084667       0.00300288
Br      10.35000444      -1.63358616       0.46326788       0.00158824      -0.00143718       0.00054954
Br       9.50985334       2.47864258       0.43272078       0.00115695      -0.00146328      -0.00031057
Br       7.30507841      -0.05140084       2.90965593      -0.00123765       0.00223965      -0.00059358
Br       2.45893584      -1.66700386       5.32280656      -0.00059727      -0.00002581      -0.00013022
Br       1.57919776       2.47119485       5.36878231       0.00241306       0.00270694      -0.00098165
Br       0.65973318       0.08035246       8.65692731       0.00045634       0.00123693       0.00126032
Br       5.51890757      -6.66033943       6.23246444       0.00292162      -0.00054694      -0.00002039
Br       6.40679135      -2.49762377       6.19128160       0.00014995      -0.00163448       0.00138770
Cl       3.60576298      -4.04347736       8.65253034      -0.00164860      -0.00004804       0.00021405
Cl       5.56240470       1.69757868       6.27065700       0.00168372      -0.00158283       0.00096818
Br       6.42047474       5.77055801       6.26128199      -0.00164331      -0.00133500       0.00157332
Cl       3.41874904       4.31354331       8.68082361      -0.00215739       0.00106563      -0.00151265
Br      10.29350314      -1.69647132       5.42310727      -0.00028571       0.00253369       0.00094801
Br       9.45646400       2.52749926       5.36016422       0.00065118      -0.00016844       0.00050332
Br       8.52222163       0.09445573       8.67312125      -0.00311978       0.00231359       0.00231497
Cs       3.75976812       0.57496828       2.83763658      -0.00068432      -0.00044676       0.00041613
Cs       7.98284860      -3.61524866       2.93941592      -0.00090544      -0.00142124       0.00044087
Cs       8.06383366       4.70434648       2.86008403      -0.00043375      -0.00236237      -0.00066049
Cs      11.69455622       0.57019387       2.95427526       0.00393552      -0.00043417      -0.00007691
Cs       4.21266024      -0.59753258       8.59480816      -0.00185042       0.00089964      -0.00041143
Cs       7.88937656      -4.66716306       8.65397683      -0.00223923      -0.00137352       0.00011313
Cs       8.04570451       3.67888154       8.68395744      -0.00352051      -0.00023498       0.00098981
Cs      12.07510234      -0.56329680       8.73598113      -0.00338935       0.00117374      -0.00132614
